"NoTicket";"CodeCli";"Caissier";"DateTicket"
22906;"SYBEL";6;1/9/2021 00:00:00
22907;"RIDAN";13;1/9/2021 00:00:00
22908;"CLJAN";5;1/9/2021 00:00:00
22909;"PABEL";1;1/9/2021 00:00:00
22910;"CHROU";1;1/9/2021 00:00:00
22911;"ROHAM";5;1/9/2021 00:00:00
22912;"THLOP";5;1/9/2021 00:00:00
22913;"SELAU";8;1/9/2021 00:00:00
22914;"GESEF";1;1/9/2021 00:00:00
22915;"CHGRA";3;1/9/2021 00:00:00
22916;"CHDUD";1;1/9/2021 00:00:00
22917;"MIGAL";1;1/9/2021 00:00:00
22918;"FAMAR";7;1/9/2021 00:00:00
22919;"SEADI";4;1/9/2021 00:00:00
22920;"HALER";10;1/9/2021 00:00:00
22921;"DACOU";7;1/9/2021 00:00:00
22922;"FRMIC";4;1/9/2021 00:00:00
22923;"NAROU";4;1/9/2021 00:00:00
22924;"JÉBAZ";5;1/9/2021 00:00:00
22925;"YAKAL";10;1/9/2021 00:00:00
22926;"CÉDAU";4;1/9/2021 00:00:00
22927;"SYLEJ";9;1/9/2021 00:00:00
22928;"CHDUD";7;1/9/2021 00:00:00
22929;"MAHEN";4;1/9/2021 00:00:00
22930;"JEBOR";9;1/9/2021 00:00:00
22931;"YAKAL";2;1/9/2021 00:00:00
22932;"DAMIC";6;1/9/2021 00:00:00
22933;"MABON";1;2/9/2021 00:00:00
22934;"CHDUD";3;2/9/2021 00:00:00
22935;"MIGAL";1;2/9/2021 00:00:00
22936;"CHROU";6;2/9/2021 00:00:00
22937;"PAMAR";5;2/9/2021 00:00:00
22938;"CÉDAU";1;2/9/2021 00:00:00
22939;"YAKAL";5;2/9/2021 00:00:00
22940;"ERBEC";7;2/9/2021 00:00:00
22941;"CLJAN";4;2/9/2021 00:00:00
22942;"NAROU";3;2/9/2021 00:00:00
22943;"JALES";3;2/9/2021 00:00:00
22944;"FRMIC";3;2/9/2021 00:00:00
22945;"JEMAN";4;2/9/2021 00:00:00
22946;"CHGRA";1;2/9/2021 00:00:00
22947;"SYLEJ";9;2/9/2021 00:00:00
22948;"CHBES";1;2/9/2021 00:00:00
22949;"GESEF";6;2/9/2021 00:00:00
22950;"CLJAN";3;2/9/2021 00:00:00
22951;"BEGAL";2;2/9/2021 00:00:00
22952;"JELAZ";5;2/9/2021 00:00:00
22953;"CLHAL";1;2/9/2021 00:00:00
22954;"PALEC";3;2/9/2021 00:00:00
22955;"ERDUR";3;2/9/2021 00:00:00
22956;"NISCH";4;2/9/2021 00:00:00
22957;"JEHOU";1;2/9/2021 00:00:00
22958;"GECAU";7;2/9/2021 00:00:00
22959;"SAJOU";4;2/9/2021 00:00:00
22960;"DAMIC";7;2/9/2021 00:00:00
22961;"ALCLE";3;2/9/2021 00:00:00
22962;"CHGRA";5;2/9/2021 00:00:00
22963;"CÉDAU";6;2/9/2021 00:00:00
22964;"ALDUV";6;2/9/2021 00:00:00
22965;"GAANT";1;2/9/2021 00:00:00
22966;"GESEF";4;2/9/2021 00:00:00
22967;"CLHAL";4;2/9/2021 00:00:00
22968;"PABEL";10;2/9/2021 00:00:00
22969;"REDAN";11;2/9/2021 00:00:00
22970;"CHBON";1;2/9/2021 00:00:00
22971;"NISCH";6;2/9/2021 00:00:00
22972;"RIDAN";13;2/9/2021 00:00:00
22973;"VIVAN";7;2/9/2021 00:00:00
22974;"JÉBAZ";4;3/9/2021 00:00:00
22975;"CHBON";9;3/9/2021 00:00:00
22976;"VIGUI";4;3/9/2021 00:00:00
22977;"DIDAL";4;3/9/2021 00:00:00
22978;"ZOHED";4;3/9/2021 00:00:00
22979;"DAMIC";4;3/9/2021 00:00:00
22980;"ROHAM";9;3/9/2021 00:00:00
22981;"JEBOR";4;3/9/2021 00:00:00
22982;"SORET";4;3/9/2021 00:00:00
22983;"LEHOS";4;3/9/2021 00:00:00
22984;"REDAN";5;3/9/2021 00:00:00
22985;"DIDAL";4;3/9/2021 00:00:00
22986;"ERSWE";7;3/9/2021 00:00:00
22987;"ALDUV";8;3/9/2021 00:00:00
22988;"DACOU";8;3/9/2021 00:00:00
22989;"RIDAB";4;3/9/2021 00:00:00
22990;"MIGAL";4;3/9/2021 00:00:00
22991;"CEGRO";4;3/9/2021 00:00:00
22992;"GAANT";4;3/9/2021 00:00:00
22993;"CHLAB";4;3/9/2021 00:00:00
22994;"JEHOU";4;3/9/2021 00:00:00
22995;"ERSWE";4;3/9/2021 00:00:00
22996;"ANLER";4;3/9/2021 00:00:00
22997;"CHDUD";4;3/9/2021 00:00:00
22998;"DIGOM";4;3/9/2021 00:00:00
22999;"RIDAB";2;3/9/2021 00:00:00
23000;"BETIZ";2;3/9/2021 00:00:00
23001;"CHGRA";7;3/9/2021 00:00:00
23002;"THLOP";5;3/9/2021 00:00:00
23003;"CHBES";4;3/9/2021 00:00:00
23004;"SORET";4;3/9/2021 00:00:00
23005;"CHLAB";11;3/9/2021 00:00:00
23006;"LOHUE";5;3/9/2021 00:00:00
23007;"MIGAL";4;3/9/2021 00:00:00
23008;"CLHAL";4;3/9/2021 00:00:00
23009;"JÉBAZ";3;3/9/2021 00:00:00
23010;"SELAU";4;3/9/2021 00:00:00
23011;"FRMIC";10;4/9/2021 00:00:00
23012;"MABON";2;4/9/2021 00:00:00
23013;"PABEL";3;4/9/2021 00:00:00
23014;"CLHAL";12;4/9/2021 00:00:00
23015;"ANLER";1;4/9/2021 00:00:00
23016;"ZOHED";5;4/9/2021 00:00:00
23017;"CHLAB";7;4/9/2021 00:00:00
23018;"ERDUR";5;4/9/2021 00:00:00
23019;"DACOU";10;4/9/2021 00:00:00
23020;"JELAZ";6;4/9/2021 00:00:00
23021;"ALCLE";3;4/9/2021 00:00:00
23022;"SELAU";1;4/9/2021 00:00:00
23023;"HALER";9;4/9/2021 00:00:00
23024;"RARAB";6;4/9/2021 00:00:00
23025;"GECAU";9;4/9/2021 00:00:00
23026;"MALAZ";3;4/9/2021 00:00:00
23027;"FRLAN";5;4/9/2021 00:00:00
23028;"PALER";5;4/9/2021 00:00:00
23029;"LEHOS";6;4/9/2021 00:00:00
23030;"MALAZ";5;4/9/2021 00:00:00
23031;"JEHOU";4;4/9/2021 00:00:00
23032;"ZOHED";3;4/9/2021 00:00:00
23033;"PASAU";4;4/9/2021 00:00:00
23034;"MALAZ";4;4/9/2021 00:00:00
23035;"PALER";2;4/9/2021 00:00:00
23036;"JAHEN";10;4/9/2021 00:00:00
23037;"ANLER";1;4/9/2021 00:00:00
23038;"CEGRO";5;4/9/2021 00:00:00
23039;"ZOHED";4;4/9/2021 00:00:00
23040;"CÉDAU";6;4/9/2021 00:00:00
23041;"FRMIC";3;4/9/2021 00:00:00
23042;"DACOU";5;4/9/2021 00:00:00
23043;"BRLEH";3;4/9/2021 00:00:00
23044;"CLJAN";5;4/9/2021 00:00:00
23045;"BETIZ";5;4/9/2021 00:00:00
23046;"PILED";4;4/9/2021 00:00:00
23047;"ANLER";7;4/9/2021 00:00:00
23048;"ERDUR";9;4/9/2021 00:00:00
23049;"MABON";4;5/9/2021 00:00:00
23050;"CLJAN";1;5/9/2021 00:00:00
23051;"CLHAL";7;5/9/2021 00:00:00
23052;"MAHEN";9;5/9/2021 00:00:00
23053;"VIGUI";1;5/9/2021 00:00:00
23054;"CHLAB";6;5/9/2021 00:00:00
23055;"RIDAN";1;5/9/2021 00:00:00
23056;"JAHEN";3;5/9/2021 00:00:00
23057;"ERDUR";4;5/9/2021 00:00:00
23058;"OLFER";6;5/9/2021 00:00:00
23059;"ERBEC";4;5/9/2021 00:00:00
23060;"JEMAN";3;5/9/2021 00:00:00
23061;"ERSWE";3;5/9/2021 00:00:00
23062;"DACOU";4;5/9/2021 00:00:00
23063;"LEHOS";6;5/9/2021 00:00:00
23064;"PABEL";4;5/9/2021 00:00:00
23065;"JELEC";2;5/9/2021 00:00:00
23066;"CHROU";6;5/9/2021 00:00:00
23067;"REDAN";4;5/9/2021 00:00:00
23068;"PILED";4;5/9/2021 00:00:00
23069;"ALCLE";4;5/9/2021 00:00:00
23070;"MICOL";10;5/9/2021 00:00:00
23071;"NISCH";10;5/9/2021 00:00:00
23072;"PILED";4;5/9/2021 00:00:00
23073;"GAANT";4;5/9/2021 00:00:00
23074;"YATAN";12;5/9/2021 00:00:00
23075;"NISCH";11;5/9/2021 00:00:00
23076;"BRLEH";3;5/9/2021 00:00:00
23077;"JEHOU";5;5/9/2021 00:00:00
23078;"FRLAN";8;5/9/2021 00:00:00
23079;"PAJAL";6;5/9/2021 00:00:00
23080;"MAEUS";3;5/9/2021 00:00:00
23081;"REDAN";3;5/9/2021 00:00:00
23082;"VIVAN";4;5/9/2021 00:00:00
23083;"RARAB";6;5/9/2021 00:00:00
23084;"JELAZ";4;5/9/2021 00:00:00
23085;"MAEUS";4;5/9/2021 00:00:00
23086;"RIDAN";8;5/9/2021 00:00:00
23087;"CÉDAU";7;5/9/2021 00:00:00
23088;"REDAN";3;5/9/2021 00:00:00
23089;"PHFRO";8;5/9/2021 00:00:00
23090;"DIGOM";6;6/9/2021 00:00:00
23091;"GAANT";7;6/9/2021 00:00:00
23092;"ROHAM";7;6/9/2021 00:00:00
23093;"YAKAL";1;6/9/2021 00:00:00
23094;"DELE";7;6/9/2021 00:00:00
23095;"YAKAL";13;6/9/2021 00:00:00
23096;"SYBEL";4;6/9/2021 00:00:00
23097;"CÉDAU";3;6/9/2021 00:00:00
23098;"BRLEH";7;6/9/2021 00:00:00
23099;"ALCLE";5;6/9/2021 00:00:00
23100;"RIDAB";8;6/9/2021 00:00:00
23101;"JELEC";5;6/9/2021 00:00:00
23102;"DAMIC";7;6/9/2021 00:00:00
23103;"JEMAN";11;6/9/2021 00:00:00
23104;"THLOP";7;6/9/2021 00:00:00
23105;"JEHOU";6;6/9/2021 00:00:00
23106;"JELEC";5;6/9/2021 00:00:00
23107;"FRLAN";13;6/9/2021 00:00:00
23108;"CHBES";4;6/9/2021 00:00:00
23109;"REDAN";7;6/9/2021 00:00:00
23110;"RIDAN";7;6/9/2021 00:00:00
23111;"FAMAR";1;6/9/2021 00:00:00
23112;"DIGOM";11;6/9/2021 00:00:00
23113;"ALCLE";7;6/9/2021 00:00:00
23114;"ROHAM";4;6/9/2021 00:00:00
23115;"ALCLE";5;6/9/2021 00:00:00
23116;"HALER";1;6/9/2021 00:00:00
23117;"MIGAL";10;6/9/2021 00:00:00
23118;"NISCH";5;6/9/2021 00:00:00
23119;"PAMAR";5;6/9/2021 00:00:00
23120;"PILED";4;6/9/2021 00:00:00
23121;"THLOP";5;6/9/2021 00:00:00
23122;"ERDUR";7;6/9/2021 00:00:00
23123;"ERBEC";3;6/9/2021 00:00:00
23124;"SELAU";6;6/9/2021 00:00:00
23125;"BEAVI";4;6/9/2021 00:00:00
23126;"PASAU";7;6/9/2021 00:00:00
23127;"PHFRO";5;6/9/2021 00:00:00
23128;"FRMIC";1;6/9/2021 00:00:00
23129;"ERDEB";4;6/9/2021 00:00:00
23130;"CHLAB";1;6/9/2021 00:00:00
23131;"FAMAR";6;7/9/2021 00:00:00
23132;"DACOU";5;7/9/2021 00:00:00
23133;"ERDUR";7;7/9/2021 00:00:00
23134;"SORET";9;7/9/2021 00:00:00
23135;"ALCLE";1;7/9/2021 00:00:00
23136;"MABON";6;7/9/2021 00:00:00
23137;"ERDUR";1;7/9/2021 00:00:00
23138;"NOBEL";7;7/9/2021 00:00:00
23139;"RIDAN";4;7/9/2021 00:00:00
23140;"YAKAL";3;7/9/2021 00:00:00
23141;"MAEUS";3;7/9/2021 00:00:00
23142;"MOELK";4;7/9/2021 00:00:00
23143;"CECHA";4;7/9/2021 00:00:00
23144;"CHLEC";4;7/9/2021 00:00:00
23145;"PILED";6;7/9/2021 00:00:00
23146;"LOHUE";4;7/9/2021 00:00:00
23147;"BEAVI";6;7/9/2021 00:00:00
23148;"DAMIC";7;7/9/2021 00:00:00
23149;"SAJOU";4;7/9/2021 00:00:00
23150;"REDAN";7;7/9/2021 00:00:00
23151;"ERDEB";5;7/9/2021 00:00:00
23152;"ANLER";8;7/9/2021 00:00:00
23153;"SEADI";10;7/9/2021 00:00:00
23154;"ARBLA";3;7/9/2021 00:00:00
23155;"CLJAN";11;7/9/2021 00:00:00
23156;"CHLAB";3;7/9/2021 00:00:00
23157;"SORET";6;7/9/2021 00:00:00
23158;"GAANT";4;7/9/2021 00:00:00
23159;"LEHOS";1;7/9/2021 00:00:00
23160;"MOELK";9;7/9/2021 00:00:00
23161;"OLFER";7;7/9/2021 00:00:00
23162;"FAMAR";7;7/9/2021 00:00:00
23163;"JEHOU";1;8/9/2021 00:00:00
23164;"SORET";7;8/9/2021 00:00:00
23165;"GAANT";9;8/9/2021 00:00:00
23166;"GESEF";4;8/9/2021 00:00:00
23167;"JAHEN";7;8/9/2021 00:00:00
23168;"FAMAR";7;8/9/2021 00:00:00
23169;"ERDUR";4;8/9/2021 00:00:00
23170;"MOELK";5;8/9/2021 00:00:00
23171;"MOELK";4;8/9/2021 00:00:00
23172;"DIGOM";1;8/9/2021 00:00:00
23173;"NOBEL";7;8/9/2021 00:00:00
23174;"REDAN";7;8/9/2021 00:00:00
23175;"RARAB";5;8/9/2021 00:00:00
23176;"PABEL";3;8/9/2021 00:00:00
23177;"ERSWE";7;8/9/2021 00:00:00
23178;"MAFER";6;8/9/2021 00:00:00
23179;"DELE";7;8/9/2021 00:00:00
23180;"PALEC";4;8/9/2021 00:00:00
23181;"OLLHE";4;8/9/2021 00:00:00
23182;"ERBEC";3;8/9/2021 00:00:00
23183;"REDAN";1;8/9/2021 00:00:00
23184;"JEMAN";6;8/9/2021 00:00:00
23185;"YAKAL";4;8/9/2021 00:00:00
23186;"DAMIC";5;8/9/2021 00:00:00
23187;"OLLHE";7;8/9/2021 00:00:00
23188;"ERDUR";5;8/9/2021 00:00:00
23189;"MAHEN";3;8/9/2021 00:00:00
23190;"MAFER";1;8/9/2021 00:00:00
23191;"MAHEN";1;8/9/2021 00:00:00
23192;"FAMAR";3;8/9/2021 00:00:00
23193;"NAROU";4;8/9/2021 00:00:00
23194;"ERDEB";4;8/9/2021 00:00:00
23195;"NAROU";3;8/9/2021 00:00:00
23196;"PASAU";7;8/9/2021 00:00:00
23197;"HALER";4;8/9/2021 00:00:00
23198;"JEBOR";9;8/9/2021 00:00:00
23199;"CLHAL";1;8/9/2021 00:00:00
23200;"SYBEL";1;8/9/2021 00:00:00
23201;"ERSWE";7;8/9/2021 00:00:00
23202;"OLLHE";1;8/9/2021 00:00:00
23203;"GESEF";6;8/9/2021 00:00:00
23204;"RARAB";4;8/9/2021 00:00:00
23205;"SYBEL";3;8/9/2021 00:00:00
23206;"JEHOU";4;8/9/2021 00:00:00
23207;"ERSWE";3;8/9/2021 00:00:00
23208;"SORET";5;8/9/2021 00:00:00
23209;"LOHUE";4;8/9/2021 00:00:00
23210;"GAANT";7;8/9/2021 00:00:00
23211;"PILED";4;9/9/2021 00:00:00
23212;"CLHAL";7;9/9/2021 00:00:00
23213;"PASAU";2;9/9/2021 00:00:00
23214;"DIGOM";3;9/9/2021 00:00:00
23215;"NAROU";12;9/9/2021 00:00:00
23216;"VIVAN";8;9/9/2021 00:00:00
23217;"NOBEL";4;9/9/2021 00:00:00
23218;"JÉBAZ";1;9/9/2021 00:00:00
23219;"ZOHED";4;9/9/2021 00:00:00
23220;"PHFRO";4;9/9/2021 00:00:00
23221;"ERDEB";4;9/9/2021 00:00:00
23222;"JEHER";9;9/9/2021 00:00:00
23223;"CLHAL";5;9/9/2021 00:00:00
23224;"JEHOU";7;9/9/2021 00:00:00
23225;"JEMAN";1;9/9/2021 00:00:00
23226;"JEHOU";4;9/9/2021 00:00:00
23227;"NAROU";9;9/9/2021 00:00:00
23228;"RIDAB";10;9/9/2021 00:00:00
23229;"FAMAR";3;9/9/2021 00:00:00
23230;"JEHOU";5;9/9/2021 00:00:00
23231;"OLLHE";5;9/9/2021 00:00:00
23232;"JAHEN";6;9/9/2021 00:00:00
23233;"DAMIC";6;9/9/2021 00:00:00
23234;"JEHOU";6;9/9/2021 00:00:00
23235;"MICOL";1;9/9/2021 00:00:00
23237;"PAMAR";8;9/9/2021 00:00:00
23238;"DACOU";4;9/9/2021 00:00:00
23239;"MOELK";6;9/9/2021 00:00:00
23240;"FAMAR";7;9/9/2021 00:00:00
23241;"HALER";4;9/9/2021 00:00:00
23242;"YAKAL";3;9/9/2021 00:00:00
23243;"CLHAL";1;9/9/2021 00:00:00
23244;"FRLAN";10;9/9/2021 00:00:00
23245;"VIGUI";5;9/9/2021 00:00:00
23246;"MIGAL";4;9/9/2021 00:00:00
23247;"RIDAN";1;9/9/2021 00:00:00
23248;"VIGUI";1;9/9/2021 00:00:00
23249;"JÉBAZ";3;9/9/2021 00:00:00
23250;"MAEUS";4;9/9/2021 00:00:00
23251;"RIDAN";4;9/9/2021 00:00:00
23252;"JÉBAZ";10;9/9/2021 00:00:00
23253;"PASAU";13;9/9/2021 00:00:00
23254;"CLHAL";4;9/9/2021 00:00:00
23255;"LOHUE";3;9/9/2021 00:00:00
23256;"PHFRO";7;9/9/2021 00:00:00
23257;"CHROU";3;9/9/2021 00:00:00
23258;"THLOP";6;9/9/2021 00:00:00
23259;"FAMAR";9;10/9/2021 00:00:00
23260;"ERDEB";3;10/9/2021 00:00:00
23261;"CÉDAU";1;10/9/2021 00:00:00
23262;"DACOU";6;10/9/2021 00:00:00
23263;"SORET";3;10/9/2021 00:00:00
23264;"MOELK";3;10/9/2021 00:00:00
23265;"PALER";2;10/9/2021 00:00:00
23266;"ARBLA";3;10/9/2021 00:00:00
23267;"DIDAL";6;10/9/2021 00:00:00
23268;"NAROU";9;10/9/2021 00:00:00
23269;"HALER";7;10/9/2021 00:00:00
23270;"LODUR";5;10/9/2021 00:00:00
23271;"ERDEB";1;10/9/2021 00:00:00
23272;"PALEC";11;10/9/2021 00:00:00
23273;"DACOU";8;10/9/2021 00:00:00
23274;"BEAVI";9;10/9/2021 00:00:00
23275;"SYBEL";9;10/9/2021 00:00:00
23276;"SYBEL";3;10/9/2021 00:00:00
23277;"DAMIC";5;10/9/2021 00:00:00
23278;"ZOHED";3;10/9/2021 00:00:00
23279;"CHLEC";11;10/9/2021 00:00:00
23280;"ERBEC";6;10/9/2021 00:00:00
23281;"NAROU";4;10/9/2021 00:00:00
23282;"MOELK";4;10/9/2021 00:00:00
23283;"MOELK";1;10/9/2021 00:00:00
23284;"HALER";7;10/9/2021 00:00:00
23285;"GAANT";4;10/9/2021 00:00:00
23286;"ROHAM";9;10/9/2021 00:00:00
23287;"SAJOU";4;10/9/2021 00:00:00
23288;"JELEC";10;10/9/2021 00:00:00
23289;"ALCLE";1;10/9/2021 00:00:00
23290;"SYLEJ";4;10/9/2021 00:00:00
23291;"DAMIC";12;11/9/2021 00:00:00
23292;"JUBOY";12;11/9/2021 00:00:00
23293;"SAJOU";5;11/9/2021 00:00:00
23294;"FAMAR";3;11/9/2021 00:00:00
23295;"ARBLA";7;11/9/2021 00:00:00
23296;"CHGRA";3;11/9/2021 00:00:00
23297;"DIGOM";4;11/9/2021 00:00:00
23298;"BETIZ";8;11/9/2021 00:00:00
23299;"REDAN";3;11/9/2021 00:00:00
23300;"DIDAL";12;11/9/2021 00:00:00
23301;"CÉDAU";1;11/9/2021 00:00:00
23302;"DAMIC";4;11/9/2021 00:00:00
23303;"GECAU";12;11/9/2021 00:00:00
23304;"FAMAR";11;11/9/2021 00:00:00
23305;"JEBOR";6;11/9/2021 00:00:00
23306;"CHGAS";10;11/9/2021 00:00:00
23307;"CLJAN";1;11/9/2021 00:00:00
23308;"PABEL";7;11/9/2021 00:00:00
23309;"ARBLA";9;11/9/2021 00:00:00
23310;"BETIZ";5;11/9/2021 00:00:00
23311;"DACOU";5;11/9/2021 00:00:00
23312;"JEMAN";9;11/9/2021 00:00:00
23313;"ZOHED";4;11/9/2021 00:00:00
23314;"NISCH";3;11/9/2021 00:00:00
23315;"CECHA";9;11/9/2021 00:00:00
23316;"ERDEB";3;11/9/2021 00:00:00
23317;"MIGAL";2;11/9/2021 00:00:00
23318;"PABEL";12;12/9/2021 00:00:00
23319;"NAROU";10;12/9/2021 00:00:00
23320;"BRLEH";6;12/9/2021 00:00:00
23321;"RIDAB";5;12/9/2021 00:00:00
23322;"NAROU";6;12/9/2021 00:00:00
23323;"BETIZ";2;12/9/2021 00:00:00
23324;"ALCLE";1;12/9/2021 00:00:00
23325;"JEHOU";6;12/9/2021 00:00:00
23326;"CHLEC";6;12/9/2021 00:00:00
23327;"MICOL";7;12/9/2021 00:00:00
23328;"CLJAN";5;12/9/2021 00:00:00
23329;"CECHA";4;12/9/2021 00:00:00
23330;"JEHOU";7;12/9/2021 00:00:00
23331;"ZOHED";4;12/9/2021 00:00:00
23332;"CLHAL";6;12/9/2021 00:00:00
23333;"BRLEH";1;12/9/2021 00:00:00
23334;"BEGAL";4;12/9/2021 00:00:00
23335;"FRLAN";5;12/9/2021 00:00:00
23336;"ZOHED";4;12/9/2021 00:00:00
23337;"DIGOM";3;12/9/2021 00:00:00
23338;"ARBLA";7;12/9/2021 00:00:00
23339;"OLFER";4;12/9/2021 00:00:00
23340;"CLJAN";3;12/9/2021 00:00:00
23341;"PHFRO";5;12/9/2021 00:00:00
23342;"FAMAR";3;12/9/2021 00:00:00
23343;"CLHAL";6;13/9/2021 00:00:00
23344;"NAROU";4;13/9/2021 00:00:00
23345;"ERDUR";3;13/9/2021 00:00:00
23346;"CÉDAU";1;13/9/2021 00:00:00
23347;"SYLEJ";6;13/9/2021 00:00:00
23348;"PHFRO";6;13/9/2021 00:00:00
23349;"GESEF";10;13/9/2021 00:00:00
23350;"JEHOU";5;13/9/2021 00:00:00
23351;"YATAN";12;13/9/2021 00:00:00
23352;"DAMIC";5;13/9/2021 00:00:00
23353;"PAJAL";4;13/9/2021 00:00:00
23354;"NAROU";1;13/9/2021 00:00:00
23355;"PABEL";2;13/9/2021 00:00:00
23356;"DIGOM";1;13/9/2021 00:00:00
23357;"MOELK";1;13/9/2021 00:00:00
23358;"DAMIC";7;13/9/2021 00:00:00
23359;"SYLEJ";1;13/9/2021 00:00:00
23360;"SYBEL";4;13/9/2021 00:00:00
23361;"DAMIC";12;13/9/2021 00:00:00
23362;"OLLHE";5;13/9/2021 00:00:00
23363;"DELE";7;13/9/2021 00:00:00
23364;"JEMAN";3;13/9/2021 00:00:00
23365;"MOELK";3;13/9/2021 00:00:00
23366;"MICOL";4;13/9/2021 00:00:00
23367;"DELE";4;13/9/2021 00:00:00
23368;"MAEUS";5;13/9/2021 00:00:00
23369;"PABEL";11;13/9/2021 00:00:00
23370;"MOELK";6;13/9/2021 00:00:00
23371;"JAHEN";9;13/9/2021 00:00:00
23372;"SYBEL";4;13/9/2021 00:00:00
23373;"MAEUS";1;13/9/2021 00:00:00
23374;"JÉBAZ";6;13/9/2021 00:00:00
23375;"JÉBAZ";3;13/9/2021 00:00:00
23376;"MOELK";1;13/9/2021 00:00:00
23377;"CLJAN";12;13/9/2021 00:00:00
23378;"GAANT";4;13/9/2021 00:00:00
23379;"ERSWE";1;13/9/2021 00:00:00
23380;"PAJAL";9;13/9/2021 00:00:00
23381;"LODUR";9;13/9/2021 00:00:00
23382;"JEHOU";1;13/9/2021 00:00:00
23383;"CHLEC";12;13/9/2021 00:00:00
23384;"CHROU";1;14/9/2021 00:00:00
23385;"JEHOU";1;14/9/2021 00:00:00
23386;"CHLEC";4;14/9/2021 00:00:00
23387;"PAJAL";12;14/9/2021 00:00:00
23388;"PAMAR";8;14/9/2021 00:00:00
23389;"HALER";9;14/9/2021 00:00:00
23390;"FRLAN";5;14/9/2021 00:00:00
23391;"YATAN";3;14/9/2021 00:00:00
23392;"YAKAL";9;14/9/2021 00:00:00
23393;"CHLAB";1;14/9/2021 00:00:00
23394;"JAHEN";9;14/9/2021 00:00:00
23395;"DIDAL";3;14/9/2021 00:00:00
23396;"SYBEL";4;14/9/2021 00:00:00
23397;"ARBLA";4;14/9/2021 00:00:00
23398;"CHGRA";4;14/9/2021 00:00:00
23399;"PAJAL";4;14/9/2021 00:00:00
23400;"CLHAL";4;14/9/2021 00:00:00
23401;"ERSWE";1;14/9/2021 00:00:00
23402;"LOHUE";4;14/9/2021 00:00:00
23403;"NAROU";6;14/9/2021 00:00:00
23404;"SYBEL";9;14/9/2021 00:00:00
23405;"FAMAR";1;14/9/2021 00:00:00
23406;"SEADI";6;14/9/2021 00:00:00
23407;"ALCLE";3;14/9/2021 00:00:00
23408;"CEGRO";4;14/9/2021 00:00:00
23409;"NISCH";6;15/9/2021 00:00:00
23410;"CHLEC";10;15/9/2021 00:00:00
23411;"JÉBAZ";9;15/9/2021 00:00:00
23412;"PHFRO";5;15/9/2021 00:00:00
23413;"MAFER";10;15/9/2021 00:00:00
23414;"OLLHE";7;15/9/2021 00:00:00
23415;"REDAN";3;15/9/2021 00:00:00
23416;"PABEL";12;15/9/2021 00:00:00
23417;"DACOU";5;15/9/2021 00:00:00
23418;"BETIZ";3;15/9/2021 00:00:00
23419;"MOELK";7;15/9/2021 00:00:00
23420;"SEADI";10;15/9/2021 00:00:00
23421;"BRLEH";3;15/9/2021 00:00:00
23422;"YAKAL";12;15/9/2021 00:00:00
23423;"CHLAB";1;15/9/2021 00:00:00
23424;"JÉBAZ";4;15/9/2021 00:00:00
23425;"CHLAB";7;15/9/2021 00:00:00
23426;"SAJOU";1;15/9/2021 00:00:00
23427;"ERBEC";4;15/9/2021 00:00:00
23428;"FAMAR";6;15/9/2021 00:00:00
23429;"ALCLE";4;15/9/2021 00:00:00
23430;"JEMAN";3;15/9/2021 00:00:00
23431;"NISCH";3;15/9/2021 00:00:00
23432;"OLFER";4;16/9/2021 00:00:00
23433;"LOHUE";4;16/9/2021 00:00:00
23434;"ERDEB";5;16/9/2021 00:00:00
23435;"LEHOS";1;16/9/2021 00:00:00
23436;"JÉBAZ";9;16/9/2021 00:00:00
23437;"JUBOY";12;16/9/2021 00:00:00
23438;"GESEF";7;16/9/2021 00:00:00
23439;"DAMIC";4;16/9/2021 00:00:00
23440;"CHLEC";9;16/9/2021 00:00:00
23441;"CHBON";3;16/9/2021 00:00:00
23442;"RARAB";4;16/9/2021 00:00:00
23443;"FAMAR";7;16/9/2021 00:00:00
23444;"ERSWE";4;16/9/2021 00:00:00
23445;"JEBOR";7;16/9/2021 00:00:00
23446;"CHROU";4;16/9/2021 00:00:00
23447;"MOELK";7;16/9/2021 00:00:00
23448;"JEHOU";6;16/9/2021 00:00:00
23449;"BETIZ";6;16/9/2021 00:00:00
23450;"DIDAL";3;16/9/2021 00:00:00
23451;"NOBEL";3;16/9/2021 00:00:00
23452;"CÉDAU";7;16/9/2021 00:00:00
23453;"JAHEN";1;16/9/2021 00:00:00
23454;"CHNIE";13;16/9/2021 00:00:00
23455;"BETIZ";7;16/9/2021 00:00:00
23456;"GESEF";5;16/9/2021 00:00:00
23457;"DELE";1;16/9/2021 00:00:00
23458;"ERSWE";7;16/9/2021 00:00:00
23459;"DIDAL";6;16/9/2021 00:00:00
23460;"JEMAN";6;16/9/2021 00:00:00
23461;"GAANT";1;16/9/2021 00:00:00
23462;"JEBOR";4;17/9/2021 00:00:00
23463;"FAMAR";3;17/9/2021 00:00:00
23464;"ZOHED";4;17/9/2021 00:00:00
23465;"PILED";1;17/9/2021 00:00:00
23466;"PAJAL";4;17/9/2021 00:00:00
23467;"JEHOU";7;17/9/2021 00:00:00
23468;"DELE";6;17/9/2021 00:00:00
23469;"GESEF";1;17/9/2021 00:00:00
23470;"CLJAN";2;17/9/2021 00:00:00
23471;"ERBEC";6;17/9/2021 00:00:00
23472;"MIGAL";2;17/9/2021 00:00:00
23473;"PILED";11;17/9/2021 00:00:00
23474;"MOELK";6;17/9/2021 00:00:00
23475;"SYLEJ";3;17/9/2021 00:00:00
23476;"PILED";4;17/9/2021 00:00:00
23477;"YATAN";6;17/9/2021 00:00:00
23478;"NAROU";3;17/9/2021 00:00:00
23479;"ERDEB";3;17/9/2021 00:00:00
23480;"THLOP";1;17/9/2021 00:00:00
23481;"NISCH";1;17/9/2021 00:00:00
23482;"DAMIC";5;17/9/2021 00:00:00
23483;"CHLEC";4;17/9/2021 00:00:00
23484;"PALER";5;17/9/2021 00:00:00
23485;"MOELK";4;17/9/2021 00:00:00
23486;"RARAB";3;17/9/2021 00:00:00
23487;"PILED";1;17/9/2021 00:00:00
23488;"DACOU";5;17/9/2021 00:00:00
23489;"JAHEN";1;17/9/2021 00:00:00
23490;"GECAU";4;17/9/2021 00:00:00
23491;"DIDAL";4;17/9/2021 00:00:00
23492;"VIVAN";5;17/9/2021 00:00:00
23493;"ERDEB";5;17/9/2021 00:00:00
23494;"PAJAL";1;17/9/2021 00:00:00
23495;"CHLAB";1;17/9/2021 00:00:00
23496;"CLJAN";8;17/9/2021 00:00:00
23497;"RARAB";5;18/9/2021 00:00:00
23498;"MOELK";1;18/9/2021 00:00:00
23499;"ALCLE";7;18/9/2021 00:00:00
23500;"BRLEH";5;18/9/2021 00:00:00
23501;"ERDEB";4;18/9/2021 00:00:00
23502;"BETIZ";9;18/9/2021 00:00:00
23503;"JEHOU";6;18/9/2021 00:00:00
23504;"ARBLA";3;18/9/2021 00:00:00
23505;"CLHAL";4;18/9/2021 00:00:00
23506;"DELE";3;18/9/2021 00:00:00
23507;"RARAB";7;18/9/2021 00:00:00
23508;"CHLAB";10;18/9/2021 00:00:00
23509;"CHROU";4;18/9/2021 00:00:00
23510;"ERSWE";3;18/9/2021 00:00:00
23511;"JEBOR";1;18/9/2021 00:00:00
23512;"CLJAN";11;18/9/2021 00:00:00
23513;"MIGAL";5;18/9/2021 00:00:00
23514;"ARBLA";7;18/9/2021 00:00:00
23515;"PHFRO";5;18/9/2021 00:00:00
23516;"ALCLE";5;18/9/2021 00:00:00
23517;"NAROU";1;18/9/2021 00:00:00
23518;"PAMAR";5;18/9/2021 00:00:00
23519;"HALER";1;19/9/2021 00:00:00
23520;"MOELK";6;19/9/2021 00:00:00
23521;"ANLER";1;19/9/2021 00:00:00
23522;"CHLEC";3;19/9/2021 00:00:00
23523;"GESEF";1;19/9/2021 00:00:00
23524;"MAEUS";6;19/9/2021 00:00:00
23525;"PILED";4;19/9/2021 00:00:00
23526;"BEGAL";5;19/9/2021 00:00:00
23527;"JALES";9;19/9/2021 00:00:00
23528;"PHFRO";5;19/9/2021 00:00:00
23529;"JAHEN";5;19/9/2021 00:00:00
23530;"ZOHED";4;19/9/2021 00:00:00
23531;"CLHAL";4;19/9/2021 00:00:00
23532;"ALAUV";1;19/9/2021 00:00:00
23533;"ERDEB";3;19/9/2021 00:00:00
23534;"GECAU";5;19/9/2021 00:00:00
23535;"HALER";3;19/9/2021 00:00:00
23536;"NAROU";3;19/9/2021 00:00:00
23537;"SYLEJ";5;19/9/2021 00:00:00
23538;"ALAUV";3;19/9/2021 00:00:00
23539;"NAROU";1;19/9/2021 00:00:00
23540;"CHBES";11;19/9/2021 00:00:00
23541;"CHNIE";4;19/9/2021 00:00:00
23542;"CHBES";6;19/9/2021 00:00:00
23543;"CHBES";4;19/9/2021 00:00:00
23544;"MAHEN";7;20/9/2021 00:00:00
23545;"GAANT";4;20/9/2021 00:00:00
23546;"CHGRA";3;20/9/2021 00:00:00
23547;"CHLEC";4;20/9/2021 00:00:00
23548;"MOELK";4;20/9/2021 00:00:00
23549;"REDAN";3;20/9/2021 00:00:00
23550;"JAHEN";4;20/9/2021 00:00:00
23551;"JEHER";12;20/9/2021 00:00:00
23552;"ARBLA";9;20/9/2021 00:00:00
23553;"MICOL";3;20/9/2021 00:00:00
23554;"CHDUD";3;20/9/2021 00:00:00
23555;"FAMAR";1;20/9/2021 00:00:00
23556;"CHLAB";7;20/9/2021 00:00:00
23557;"ROHAM";12;20/9/2021 00:00:00
23558;"LEHOS";6;20/9/2021 00:00:00
23559;"CLHAL";1;20/9/2021 00:00:00
23560;"ANLER";3;20/9/2021 00:00:00
23561;"BRLEH";4;20/9/2021 00:00:00
23562;"HALER";4;20/9/2021 00:00:00
23563;"ZOHED";3;20/9/2021 00:00:00
23564;"JÉBAZ";4;20/9/2021 00:00:00
23565;"CLJAN";2;20/9/2021 00:00:00
23566;"YATAN";3;20/9/2021 00:00:00
23567;"MICOL";7;20/9/2021 00:00:00
23568;"BETIZ";7;20/9/2021 00:00:00
23569;"MAHEN";3;20/9/2021 00:00:00
23570;"DACOU";2;20/9/2021 00:00:00
23571;"ALCLE";10;20/9/2021 00:00:00
23572;"ARBLA";7;21/9/2021 00:00:00
23573;"MIGAL";2;21/9/2021 00:00:00
23574;"JEMAN";7;21/9/2021 00:00:00
23575;"MAEUS";1;21/9/2021 00:00:00
23576;"JUBOY";3;21/9/2021 00:00:00
23577;"ZOHED";4;21/9/2021 00:00:00
23578;"CECHA";3;21/9/2021 00:00:00
23579;"GESEF";1;21/9/2021 00:00:00
23580;"JUBOY";11;21/9/2021 00:00:00
23581;"CHROU";4;21/9/2021 00:00:00
23582;"ANLER";4;21/9/2021 00:00:00
23583;"MOELK";9;21/9/2021 00:00:00
23584;"MIGAL";10;21/9/2021 00:00:00
23585;"BEAVI";4;21/9/2021 00:00:00
23586;"CHLAB";4;21/9/2021 00:00:00
23587;"CHGAS";3;21/9/2021 00:00:00
23588;"ERDEB";1;21/9/2021 00:00:00
23589;"OLLHE";8;21/9/2021 00:00:00
23590;"LOHUE";6;21/9/2021 00:00:00
23591;"JELEC";5;21/9/2021 00:00:00
23592;"SELAU";9;21/9/2021 00:00:00
23593;"ARBLA";10;21/9/2021 00:00:00
23594;"BEGAL";12;21/9/2021 00:00:00
23595;"BEAVI";4;21/9/2021 00:00:00
23596;"JEHOU";1;21/9/2021 00:00:00
23597;"JEBOR";5;22/9/2021 00:00:00
23598;"ERSWE";5;22/9/2021 00:00:00
23599;"CHBON";6;22/9/2021 00:00:00
23600;"BRLEH";10;22/9/2021 00:00:00
23601;"PHFRO";4;22/9/2021 00:00:00
23602;"MIGAL";5;22/9/2021 00:00:00
23603;"ERDEB";3;22/9/2021 00:00:00
23604;"SAJOU";3;22/9/2021 00:00:00
23605;"GESEF";3;22/9/2021 00:00:00
23606;"LODUR";4;22/9/2021 00:00:00
23607;"CHNIE";7;22/9/2021 00:00:00
23608;"CHLEC";4;22/9/2021 00:00:00
23609;"SYLEJ";1;22/9/2021 00:00:00
23610;"ARBLA";1;22/9/2021 00:00:00
23611;"ARBLA";4;22/9/2021 00:00:00
23612;"CHLAB";4;22/9/2021 00:00:00
23613;"FRLAN";5;22/9/2021 00:00:00
23614;"NAROU";1;22/9/2021 00:00:00
23615;"NOBEL";4;22/9/2021 00:00:00
23616;"OLFER";1;22/9/2021 00:00:00
23617;"VIGUI";6;22/9/2021 00:00:00
23618;"ERSWE";4;22/9/2021 00:00:00
23619;"REDAN";6;22/9/2021 00:00:00
23620;"PILED";9;22/9/2021 00:00:00
23621;"JALES";1;22/9/2021 00:00:00
23622;"CHGRA";7;22/9/2021 00:00:00
23623;"ANLER";9;23/9/2021 00:00:00
23624;"ZOHED";1;23/9/2021 00:00:00
23625;"BETIZ";1;23/9/2021 00:00:00
23626;"DAMIC";6;23/9/2021 00:00:00
23627;"RIDAN";4;23/9/2021 00:00:00
23628;"CLHAL";1;23/9/2021 00:00:00
23629;"ALDUV";7;23/9/2021 00:00:00
23630;"RARAB";3;23/9/2021 00:00:00
23631;"ZOHED";6;23/9/2021 00:00:00
23632;"GESEF";3;23/9/2021 00:00:00
23633;"NISCH";1;23/9/2021 00:00:00
23634;"FAMAR";9;23/9/2021 00:00:00
23635;"ERDUR";11;23/9/2021 00:00:00
23636;"RARAB";3;23/9/2021 00:00:00
23637;"CHBES";4;23/9/2021 00:00:00
23638;"HALER";4;23/9/2021 00:00:00
23639;"FAMAR";10;23/9/2021 00:00:00
23640;"ROHAM";7;23/9/2021 00:00:00
23641;"ALAUV";7;23/9/2021 00:00:00
23642;"NOBEL";3;23/9/2021 00:00:00
23643;"CEGRO";1;23/9/2021 00:00:00
23644;"THLOP";6;23/9/2021 00:00:00
23645;"ANLER";5;23/9/2021 00:00:00
23646;"MAEUS";6;23/9/2021 00:00:00
23647;"SELAU";7;23/9/2021 00:00:00
23648;"GESEF";9;23/9/2021 00:00:00
23649;"GESEF";6;23/9/2021 00:00:00
23650;"PASAU";5;23/9/2021 00:00:00
23651;"FRMIC";3;23/9/2021 00:00:00
23652;"ANLER";1;23/9/2021 00:00:00
23653;"CHROU";1;23/9/2021 00:00:00
23654;"MABON";12;24/9/2021 00:00:00
23655;"JEMAN";3;24/9/2021 00:00:00
23656;"REDAN";12;24/9/2021 00:00:00
23657;"PABEL";5;24/9/2021 00:00:00
23658;"JÉBAZ";6;24/9/2021 00:00:00
23659;"ERSWE";4;24/9/2021 00:00:00
23660;"JEHOU";7;24/9/2021 00:00:00
23661;"GESEF";7;24/9/2021 00:00:00
23662;"MIGAL";6;24/9/2021 00:00:00
23663;"JELEC";7;24/9/2021 00:00:00
23664;"REDAN";4;24/9/2021 00:00:00
23665;"NAROU";7;24/9/2021 00:00:00
23666;"JUBOY";6;24/9/2021 00:00:00
23667;"MAFER";9;24/9/2021 00:00:00
23668;"GAANT";3;24/9/2021 00:00:00
23669;"ERSWE";3;24/9/2021 00:00:00
23670;"YATAN";1;24/9/2021 00:00:00
23671;"JELAZ";3;24/9/2021 00:00:00
23672;"RIDAN";6;24/9/2021 00:00:00
23673;"RARAB";1;24/9/2021 00:00:00
23674;"RARAB";3;24/9/2021 00:00:00
23675;"PABEL";5;24/9/2021 00:00:00
23676;"ERDUR";4;24/9/2021 00:00:00
23677;"SYLEJ";1;24/9/2021 00:00:00
23678;"JÉBAZ";4;24/9/2021 00:00:00
23679;"LEHOS";7;24/9/2021 00:00:00
23680;"DACOU";4;24/9/2021 00:00:00
23681;"PAJAL";5;24/9/2021 00:00:00
23682;"ROHAM";4;24/9/2021 00:00:00
23683;"JÉBAZ";9;24/9/2021 00:00:00
23684;"ERSWE";4;24/9/2021 00:00:00
23685;"JEBOR";6;24/9/2021 00:00:00
23686;"CHROU";6;24/9/2021 00:00:00
23687;"JEMAN";9;24/9/2021 00:00:00
23688;"REDAN";1;24/9/2021 00:00:00
23689;"SELAU";4;24/9/2021 00:00:00
23690;"JEBOR";6;24/9/2021 00:00:00
23691;"CÉDAU";6;24/9/2021 00:00:00
23692;"ZOHED";3;24/9/2021 00:00:00
23693;"MAEUS";3;24/9/2021 00:00:00
23694;"CLJAN";4;24/9/2021 00:00:00
23695;"MIGAL";4;25/9/2021 00:00:00
23696;"PHFRO";7;25/9/2021 00:00:00
23697;"CECHA";3;25/9/2021 00:00:00
23698;"SYBEL";4;25/9/2021 00:00:00
23699;"ERSWE";3;25/9/2021 00:00:00
23700;"THLOP";4;25/9/2021 00:00:00
23701;"ANLER";1;25/9/2021 00:00:00
23702;"DIDAL";4;25/9/2021 00:00:00
23703;"DELE";3;25/9/2021 00:00:00
23704;"CHGAS";10;25/9/2021 00:00:00
23705;"SELAU";1;25/9/2021 00:00:00
23706;"MAEUS";1;25/9/2021 00:00:00
23707;"YAKAL";3;25/9/2021 00:00:00
23708;"ALCLE";7;25/9/2021 00:00:00
23709;"PHFRO";4;25/9/2021 00:00:00
23710;"DAMIC";3;25/9/2021 00:00:00
23711;"CHDUD";3;25/9/2021 00:00:00
23712;"NAROU";3;25/9/2021 00:00:00
23713;"FRMIC";7;25/9/2021 00:00:00
23714;"FAMAR";9;25/9/2021 00:00:00
23715;"ERDEB";4;25/9/2021 00:00:00
23716;"CLJAN";5;25/9/2021 00:00:00
23717;"GESEF";1;25/9/2021 00:00:00
23718;"MABON";12;25/9/2021 00:00:00
23719;"JAHEN";3;25/9/2021 00:00:00
23720;"SYBEL";4;25/9/2021 00:00:00
23721;"DAMIC";5;26/9/2021 00:00:00
23722;"DACOU";7;26/9/2021 00:00:00
23723;"ERBEC";1;26/9/2021 00:00:00
23724;"ALCLE";2;26/9/2021 00:00:00
23725;"HALER";3;26/9/2021 00:00:00
23726;"JELAZ";9;26/9/2021 00:00:00
23727;"CHGAS";7;26/9/2021 00:00:00
23728;"RARAB";3;26/9/2021 00:00:00
23729;"LODUR";4;26/9/2021 00:00:00
23730;"PAJAL";6;26/9/2021 00:00:00
23731;"GESEF";6;26/9/2021 00:00:00
23732;"SORET";1;26/9/2021 00:00:00
23733;"NAROU";1;26/9/2021 00:00:00
23734;"JELEC";13;26/9/2021 00:00:00
23735;"FAMAR";2;26/9/2021 00:00:00
23736;"NOBEL";3;26/9/2021 00:00:00
23737;"JAHEN";1;26/9/2021 00:00:00
23738;"CHBES";5;26/9/2021 00:00:00
23739;"RARAB";3;26/9/2021 00:00:00
23740;"BEGAL";2;26/9/2021 00:00:00
23741;"REDAN";9;26/9/2021 00:00:00
23742;"SELAU";1;26/9/2021 00:00:00
23743;"YATAN";4;26/9/2021 00:00:00
23744;"OLFER";5;26/9/2021 00:00:00
23745;"PAMAR";8;26/9/2021 00:00:00
23746;"CÉDAU";3;26/9/2021 00:00:00
23747;"CÉDAU";4;26/9/2021 00:00:00
23748;"ERDEB";1;26/9/2021 00:00:00
23749;"PAJAL";11;26/9/2021 00:00:00
23750;"MAHEN";1;26/9/2021 00:00:00
23751;"CHBON";12;27/9/2021 00:00:00
23752;"CHLAB";5;27/9/2021 00:00:00
23753;"REDAN";7;27/9/2021 00:00:00
23754;"PAJAL";4;27/9/2021 00:00:00
23755;"JEHOU";2;27/9/2021 00:00:00
23756;"FRMIC";1;27/9/2021 00:00:00
23757;"VIVAN";6;27/9/2021 00:00:00
23758;"MABON";3;27/9/2021 00:00:00
23759;"REDAN";3;27/9/2021 00:00:00
23760;"ERDEB";7;27/9/2021 00:00:00
23761;"JUBOY";4;27/9/2021 00:00:00
23762;"JALES";6;27/9/2021 00:00:00
23763;"MALAZ";4;27/9/2021 00:00:00
23764;"ERSWE";6;27/9/2021 00:00:00
23765;"JELAZ";4;27/9/2021 00:00:00
23766;"BETIZ";1;27/9/2021 00:00:00
23767;"ERDUR";4;27/9/2021 00:00:00
23768;"JELEC";1;27/9/2021 00:00:00
23769;"JEBOR";3;27/9/2021 00:00:00
23770;"BETIZ";3;27/9/2021 00:00:00
23771;"JEBOR";4;27/9/2021 00:00:00
23772;"RIDAN";6;27/9/2021 00:00:00
23773;"REDAN";4;27/9/2021 00:00:00
23774;"DIGOM";4;27/9/2021 00:00:00
23775;"LOHUE";9;28/9/2021 00:00:00
23776;"CLJAN";4;28/9/2021 00:00:00
23777;"CEGRO";3;28/9/2021 00:00:00
23778;"BEAVI";6;28/9/2021 00:00:00
23779;"ZOHED";1;28/9/2021 00:00:00
23780;"JUBOY";3;28/9/2021 00:00:00
23781;"ROHAM";11;28/9/2021 00:00:00
23782;"JEMAN";7;28/9/2021 00:00:00
23783;"ANLER";6;28/9/2021 00:00:00
23784;"GESEF";4;28/9/2021 00:00:00
23785;"JELEC";9;28/9/2021 00:00:00
23786;"YATAN";6;28/9/2021 00:00:00
23787;"REDAN";6;28/9/2021 00:00:00
23788;"JEHER";4;28/9/2021 00:00:00
23789;"OLFER";6;28/9/2021 00:00:00
23790;"ERSWE";7;28/9/2021 00:00:00
23791;"CHBES";3;28/9/2021 00:00:00
23792;"OLLHE";10;28/9/2021 00:00:00
23793;"THLOP";4;28/9/2021 00:00:00
23794;"RIDAN";4;28/9/2021 00:00:00
23795;"ERSWE";1;28/9/2021 00:00:00
23796;"CHGRA";1;28/9/2021 00:00:00
23797;"ERSWE";3;28/9/2021 00:00:00
23798;"JAHEN";4;28/9/2021 00:00:00
23799;"DAMIC";6;28/9/2021 00:00:00
23800;"JEMAN";6;29/9/2021 00:00:00
23801;"ERDEB";3;29/9/2021 00:00:00
23802;"JEHER";1;29/9/2021 00:00:00
23803;"ROHAM";2;29/9/2021 00:00:00
23804;"JEHOU";10;29/9/2021 00:00:00
23805;"SEADI";9;29/9/2021 00:00:00
23806;"DACOU";4;29/9/2021 00:00:00
23807;"PALER";6;29/9/2021 00:00:00
23808;"PILED";5;29/9/2021 00:00:00
23809;"JEHOU";1;29/9/2021 00:00:00
23810;"NISCH";7;29/9/2021 00:00:00
23811;"LOHUE";12;29/9/2021 00:00:00
23812;"OLLHE";12;29/9/2021 00:00:00
23813;"JEHOU";9;29/9/2021 00:00:00
23814;"THLOP";1;29/9/2021 00:00:00
23815;"ALCLE";4;29/9/2021 00:00:00
23816;"CLHAL";12;29/9/2021 00:00:00
23817;"ALAUV";7;29/9/2021 00:00:00
23818;"MALAZ";1;29/9/2021 00:00:00
23819;"CHGRA";4;29/9/2021 00:00:00
23820;"DACOU";7;30/9/2021 00:00:00
23821;"BEGAL";7;30/9/2021 00:00:00
23822;"DELE";1;30/9/2021 00:00:00
23823;"PAJAL";4;30/9/2021 00:00:00
23824;"SELAU";8;30/9/2021 00:00:00
23825;"FRMIC";6;30/9/2021 00:00:00
23826;"CÉDAU";1;30/9/2021 00:00:00
23827;"DACOU";4;30/9/2021 00:00:00
23828;"MABON";4;30/9/2021 00:00:00
23829;"JALES";4;30/9/2021 00:00:00
23830;"JUBOY";7;30/9/2021 00:00:00
23831;"ARBLA";9;30/9/2021 00:00:00
23832;"CHBON";12;30/9/2021 00:00:00
23833;"MAEUS";3;30/9/2021 00:00:00
23834;"CLJAN";6;30/9/2021 00:00:00
23835;"PAMAR";4;30/9/2021 00:00:00
23836;"HALER";7;30/9/2021 00:00:00
23837;"CHLEC";2;30/9/2021 00:00:00
23838;"YAKAL";6;30/9/2021 00:00:00
23839;"RIDAB";5;30/9/2021 00:00:00
23840;"CHGRA";12;30/9/2021 00:00:00
23841;"MOELK";4;30/9/2021 00:00:00
23842;"ERSWE";4;30/9/2021 00:00:00
23843;"OLFER";7;30/9/2021 00:00:00
23844;"CEGRO";10;30/9/2021 00:00:00
23845;"ALAUV";4;30/9/2021 00:00:00
23846;"JAHEN";3;30/9/2021 00:00:00
23847;"REDAN";7;1/10/2021 00:00:00
23848;"PAJAL";4;1/10/2021 00:00:00
23849;"DELE";4;1/10/2021 00:00:00
23850;"JUBOY";1;1/10/2021 00:00:00
23851;"JALES";3;1/10/2021 00:00:00
23852;"BETIZ";4;1/10/2021 00:00:00
23853;"BRLEH";9;1/10/2021 00:00:00
23854;"ARBLA";6;1/10/2021 00:00:00
23855;"CLJAN";10;1/10/2021 00:00:00
23856;"MOELK";4;1/10/2021 00:00:00
23857;"DIGOM";10;1/10/2021 00:00:00
23858;"JAHEN";6;1/10/2021 00:00:00
23859;"CHLEC";13;1/10/2021 00:00:00
23860;"MOELK";5;1/10/2021 00:00:00
23861;"CÉDAU";5;1/10/2021 00:00:00
23862;"JAHEN";7;1/10/2021 00:00:00
23863;"BEGAL";8;1/10/2021 00:00:00
23864;"CÉDAU";7;1/10/2021 00:00:00
23865;"JÉBAZ";4;1/10/2021 00:00:00
23866;"DIGOM";9;1/10/2021 00:00:00
23867;"CHLEC";5;1/10/2021 00:00:00
23868;"PHFRO";5;1/10/2021 00:00:00
23869;"PAJAL";5;1/10/2021 00:00:00
23870;"ARBLA";1;1/10/2021 00:00:00
23871;"ALCLE";4;1/10/2021 00:00:00
23872;"MIGAL";4;1/10/2021 00:00:00
23873;"VIVAN";7;2/10/2021 00:00:00
23874;"GESEF";1;2/10/2021 00:00:00
23875;"NAROU";5;2/10/2021 00:00:00
23876;"PHFRO";4;2/10/2021 00:00:00
23877;"MIGAL";8;2/10/2021 00:00:00
23878;"DELE";6;2/10/2021 00:00:00
23879;"CHGRA";1;2/10/2021 00:00:00
23880;"CHGRA";4;2/10/2021 00:00:00
23881;"SYBEL";4;2/10/2021 00:00:00
23882;"CÉDAU";5;2/10/2021 00:00:00
23883;"YAKAL";7;2/10/2021 00:00:00
23884;"CHLEC";7;2/10/2021 00:00:00
23885;"BRLEH";7;2/10/2021 00:00:00
23886;"ARBLA";6;2/10/2021 00:00:00
23887;"OLFER";4;2/10/2021 00:00:00
23888;"YAKAL";6;2/10/2021 00:00:00
23889;"REDAN";5;2/10/2021 00:00:00
23890;"JEBOR";3;2/10/2021 00:00:00
23891;"PABEL";4;2/10/2021 00:00:00
23892;"LODUR";4;2/10/2021 00:00:00
23893;"CLJAN";3;2/10/2021 00:00:00
23894;"CLJAN";6;3/10/2021 00:00:00
23895;"DAMIC";3;3/10/2021 00:00:00
23896;"REDAN";3;3/10/2021 00:00:00
23897;"ERDEB";3;3/10/2021 00:00:00
23898;"BRLEH";3;3/10/2021 00:00:00
23899;"PAJAL";1;3/10/2021 00:00:00
23900;"PABEL";5;3/10/2021 00:00:00
23901;"DIGOM";7;3/10/2021 00:00:00
23902;"DAMIC";5;3/10/2021 00:00:00
23903;"SYBEL";4;3/10/2021 00:00:00
23904;"CHLAB";2;3/10/2021 00:00:00
23905;"DAMIC";7;3/10/2021 00:00:00
23906;"CLJAN";13;3/10/2021 00:00:00
23907;"YATAN";6;3/10/2021 00:00:00
23908;"REDAN";1;3/10/2021 00:00:00
23909;"JAHEN";1;3/10/2021 00:00:00
23910;"CHNIE";7;3/10/2021 00:00:00
23911;"BEAVI";8;3/10/2021 00:00:00
23912;"GECAU";7;3/10/2021 00:00:00
23913;"MOELK";12;3/10/2021 00:00:00
23914;"YAKAL";7;3/10/2021 00:00:00
23915;"CÉDAU";9;3/10/2021 00:00:00
23916;"SYBEL";3;3/10/2021 00:00:00
23917;"ERSWE";10;3/10/2021 00:00:00
23918;"LEHOS";9;3/10/2021 00:00:00
23919;"CHLEC";12;3/10/2021 00:00:00
23920;"JEBOR";3;3/10/2021 00:00:00
23921;"PAMAR";4;4/10/2021 00:00:00
23922;"GESEF";9;4/10/2021 00:00:00
23923;"REDAN";3;4/10/2021 00:00:00
23924;"CHLAB";5;4/10/2021 00:00:00
23925;"NAROU";1;4/10/2021 00:00:00
23926;"RIDAN";4;4/10/2021 00:00:00
23927;"PILED";4;4/10/2021 00:00:00
23928;"DIGOM";12;4/10/2021 00:00:00
23929;"CHGRA";4;4/10/2021 00:00:00
23930;"NAROU";3;4/10/2021 00:00:00
23931;"JÉBAZ";4;4/10/2021 00:00:00
23932;"BETIZ";1;4/10/2021 00:00:00
23933;"PAJAL";3;4/10/2021 00:00:00
23934;"LOHUE";7;4/10/2021 00:00:00
23935;"ERDEB";7;4/10/2021 00:00:00
23936;"JEHER";1;4/10/2021 00:00:00
23937;"CHLEC";1;4/10/2021 00:00:00
23938;"FAMAR";3;4/10/2021 00:00:00
23939;"JAHEN";1;4/10/2021 00:00:00
23940;"NAROU";3;4/10/2021 00:00:00
23941;"JÉBAZ";1;4/10/2021 00:00:00
23942;"ANLER";7;4/10/2021 00:00:00
23943;"CEGRO";4;5/10/2021 00:00:00
23944;"DAMIC";3;5/10/2021 00:00:00
23945;"REDAN";11;5/10/2021 00:00:00
23946;"DELE";3;5/10/2021 00:00:00
23947;"MAEUS";1;5/10/2021 00:00:00
23948;"GAANT";9;5/10/2021 00:00:00
23949;"NISCH";9;5/10/2021 00:00:00
23950;"SEADI";4;5/10/2021 00:00:00
23951;"ERSWE";12;5/10/2021 00:00:00
23952;"OLLHE";8;5/10/2021 00:00:00
23953;"ERDEB";5;5/10/2021 00:00:00
23954;"PASAU";10;5/10/2021 00:00:00
23955;"PILED";7;5/10/2021 00:00:00
23956;"JELEC";4;5/10/2021 00:00:00
23957;"GAANT";4;5/10/2021 00:00:00
23958;"PABEL";3;5/10/2021 00:00:00
23959;"MOELK";7;5/10/2021 00:00:00
23960;"JÉBAZ";4;5/10/2021 00:00:00
23961;"MOELK";3;5/10/2021 00:00:00
23962;"VIVAN";4;5/10/2021 00:00:00
23963;"BEAVI";8;5/10/2021 00:00:00
23964;"JELAZ";4;5/10/2021 00:00:00
23965;"DIDAL";5;6/10/2021 00:00:00
23966;"DIDAL";9;6/10/2021 00:00:00
23967;"MICOL";3;6/10/2021 00:00:00
23968;"ERSWE";11;6/10/2021 00:00:00
23969;"FRLAN";5;6/10/2021 00:00:00
23970;"DACOU";7;6/10/2021 00:00:00
23971;"ALCLE";2;6/10/2021 00:00:00
23972;"CHBES";6;6/10/2021 00:00:00
23973;"OLLHE";13;6/10/2021 00:00:00
23974;"CHDUD";4;6/10/2021 00:00:00
23975;"MOELK";7;6/10/2021 00:00:00
23976;"NOBEL";7;6/10/2021 00:00:00
23977;"JELEC";4;6/10/2021 00:00:00
23978;"CHBES";7;6/10/2021 00:00:00
23979;"FAMAR";6;6/10/2021 00:00:00
23980;"ALCLE";4;6/10/2021 00:00:00
23981;"CHBES";10;6/10/2021 00:00:00
23982;"ALDUV";6;6/10/2021 00:00:00
23983;"ARBLA";1;6/10/2021 00:00:00
23984;"THLOP";4;7/10/2021 00:00:00
23985;"JEHOU";10;7/10/2021 00:00:00
23986;"NOBEL";1;7/10/2021 00:00:00
23987;"RIDAB";5;7/10/2021 00:00:00
23988;"MOELK";10;7/10/2021 00:00:00
23989;"GECAU";1;7/10/2021 00:00:00
23990;"PABEL";2;7/10/2021 00:00:00
23991;"CHLEC";5;7/10/2021 00:00:00
23992;"PHFRO";1;7/10/2021 00:00:00
23993;"BEAVI";10;7/10/2021 00:00:00
23994;"ALAUV";4;7/10/2021 00:00:00
23995;"NOBEL";4;7/10/2021 00:00:00
23996;"NAROU";4;7/10/2021 00:00:00
23997;"MIGAL";6;7/10/2021 00:00:00
23998;"ERDEB";4;7/10/2021 00:00:00
23999;"BETIZ";7;7/10/2021 00:00:00
24000;"ANLER";3;7/10/2021 00:00:00
24001;"CHDUD";4;7/10/2021 00:00:00
24002;"FAMAR";5;8/10/2021 00:00:00
24003;"DACOU";5;8/10/2021 00:00:00
24004;"LEHOS";1;8/10/2021 00:00:00
24005;"ALCLE";6;8/10/2021 00:00:00
24006;"SEADI";7;8/10/2021 00:00:00
24007;"OLFER";3;8/10/2021 00:00:00
24008;"ERDUR";7;8/10/2021 00:00:00
24009;"MOELK";5;8/10/2021 00:00:00
24010;"OLLHE";13;8/10/2021 00:00:00
24011;"ALDUV";2;8/10/2021 00:00:00
24012;"SAJOU";3;8/10/2021 00:00:00
24013;"ALCLE";5;8/10/2021 00:00:00
24014;"ALCLE";8;8/10/2021 00:00:00
24015;"BRLEH";4;8/10/2021 00:00:00
24016;"CHLAB";11;8/10/2021 00:00:00
24017;"ARBLA";1;8/10/2021 00:00:00
24018;"CEGRO";4;8/10/2021 00:00:00
24019;"CHDUD";1;8/10/2021 00:00:00
24020;"CHLEC";10;8/10/2021 00:00:00
24021;"ALCLE";4;8/10/2021 00:00:00
24022;"BETIZ";11;8/10/2021 00:00:00
24023;"CLJAN";5;9/10/2021 00:00:00
24024;"YAKAL";7;9/10/2021 00:00:00
24025;"CHLEC";7;9/10/2021 00:00:00
24026;"ZOHED";1;9/10/2021 00:00:00
24027;"RARAB";4;9/10/2021 00:00:00
24028;"ANLER";5;9/10/2021 00:00:00
24029;"JEHOU";7;9/10/2021 00:00:00
24030;"ERSWE";4;9/10/2021 00:00:00
24031;"MAEUS";3;9/10/2021 00:00:00
24032;"PAJAL";5;9/10/2021 00:00:00
24033;"LEHOS";9;9/10/2021 00:00:00
24034;"PHFRO";1;9/10/2021 00:00:00
24035;"ARBLA";3;9/10/2021 00:00:00
24036;"MOELK";2;9/10/2021 00:00:00
24037;"GESEF";1;9/10/2021 00:00:00
24038;"CHLAB";5;9/10/2021 00:00:00
24039;"MOELK";5;9/10/2021 00:00:00
24040;"BEGAL";10;9/10/2021 00:00:00
24041;"RIDAN";5;9/10/2021 00:00:00
24042;"JEHER";4;9/10/2021 00:00:00
24043;"JUBOY";5;9/10/2021 00:00:00
24044;"MAEUS";5;9/10/2021 00:00:00
24045;"JÉBAZ";6;9/10/2021 00:00:00
24046;"HALER";3;9/10/2021 00:00:00
24047;"JEBOR";5;9/10/2021 00:00:00
24048;"ANLER";4;9/10/2021 00:00:00
24049;"NAROU";4;9/10/2021 00:00:00
24050;"REDAN";3;9/10/2021 00:00:00
24051;"DACOU";13;9/10/2021 00:00:00
24052;"SAJOU";7;9/10/2021 00:00:00
24053;"ALCLE";2;10/10/2021 00:00:00
24054;"ROHAM";5;10/10/2021 00:00:00
24055;"ALCLE";10;10/10/2021 00:00:00
24056;"PILED";4;10/10/2021 00:00:00
24057;"GESEF";4;10/10/2021 00:00:00
24058;"YATAN";9;10/10/2021 00:00:00
24059;"FAMAR";4;10/10/2021 00:00:00
24060;"DACOU";7;10/10/2021 00:00:00
24061;"OLLHE";5;10/10/2021 00:00:00
24062;"MAHEN";5;10/10/2021 00:00:00
24063;"CLHAL";3;10/10/2021 00:00:00
24064;"ZOHED";1;10/10/2021 00:00:00
24065;"PAMAR";6;10/10/2021 00:00:00
24066;"DELE";4;10/10/2021 00:00:00
24067;"BEAVI";5;10/10/2021 00:00:00
24068;"JEHOU";4;10/10/2021 00:00:00
24069;"THLOP";7;10/10/2021 00:00:00
24070;"ZOHED";3;10/10/2021 00:00:00
24071;"GESEF";10;10/10/2021 00:00:00
24072;"ANLER";3;10/10/2021 00:00:00
24073;"JAHEN";4;10/10/2021 00:00:00
24074;"BETIZ";3;10/10/2021 00:00:00
24075;"BRLEH";1;10/10/2021 00:00:00
24076;"JÉBAZ";4;10/10/2021 00:00:00
24077;"JEHOU";8;10/10/2021 00:00:00
24078;"GESEF";4;10/10/2021 00:00:00
24079;"SELAU";3;10/10/2021 00:00:00
24080;"FRMIC";5;10/10/2021 00:00:00
24081;"ERDEB";1;10/10/2021 00:00:00
24082;"JEMAN";4;11/10/2021 00:00:00
24083;"DELE";7;11/10/2021 00:00:00
24084;"DAMIC";5;11/10/2021 00:00:00
24085;"CLHAL";3;11/10/2021 00:00:00
24086;"VIGUI";7;11/10/2021 00:00:00
24087;"PILED";6;11/10/2021 00:00:00
24088;"YATAN";1;11/10/2021 00:00:00
24089;"ZOHED";10;11/10/2021 00:00:00
24090;"JEHOU";10;11/10/2021 00:00:00
24091;"DACOU";2;11/10/2021 00:00:00
24092;"PAMAR";5;11/10/2021 00:00:00
24093;"MABON";5;11/10/2021 00:00:00
24094;"JELAZ";6;11/10/2021 00:00:00
24095;"ALAUV";3;11/10/2021 00:00:00
24096;"CÉDAU";7;11/10/2021 00:00:00
24097;"CHBON";1;11/10/2021 00:00:00
24098;"BEAVI";4;11/10/2021 00:00:00
24099;"PAJAL";1;11/10/2021 00:00:00
24100;"PABEL";4;11/10/2021 00:00:00
24102;"JELEC";1;11/10/2021 00:00:00
24103;"ALDUV";1;11/10/2021 00:00:00
24104;"MAEUS";1;11/10/2021 00:00:00
24105;"CLJAN";5;12/10/2021 00:00:00
24106;"JEMAN";7;12/10/2021 00:00:00
24107;"PABEL";7;12/10/2021 00:00:00
24108;"MALAZ";1;12/10/2021 00:00:00
24109;"JEHOU";8;12/10/2021 00:00:00
24110;"DACOU";5;12/10/2021 00:00:00
24111;"REDAN";6;12/10/2021 00:00:00
24112;"DAMIC";9;12/10/2021 00:00:00
24113;"RIDAN";9;12/10/2021 00:00:00
24114;"OLFER";11;12/10/2021 00:00:00
24115;"CHNIE";2;12/10/2021 00:00:00
24116;"PHFRO";6;12/10/2021 00:00:00
24117;"DIDAL";6;12/10/2021 00:00:00
24118;"CHLAB";7;12/10/2021 00:00:00
24119;"GAANT";5;12/10/2021 00:00:00
24120;"BEAVI";4;12/10/2021 00:00:00
24121;"ANLER";7;12/10/2021 00:00:00
24122;"CHDUD";5;12/10/2021 00:00:00
24123;"MAHEN";6;13/10/2021 00:00:00
24124;"HALER";3;13/10/2021 00:00:00
24125;"ERSWE";9;13/10/2021 00:00:00
24126;"PABEL";10;13/10/2021 00:00:00
24127;"ROHAM";3;13/10/2021 00:00:00
24128;"GAANT";1;13/10/2021 00:00:00
24129;"THLOP";6;13/10/2021 00:00:00
24130;"JEBOR";1;13/10/2021 00:00:00
24131;"CHROU";9;13/10/2021 00:00:00
24132;"SELAU";1;13/10/2021 00:00:00
24133;"NAROU";1;13/10/2021 00:00:00
24134;"SAJOU";6;13/10/2021 00:00:00
24135;"DACOU";5;13/10/2021 00:00:00
24136;"DIGOM";4;13/10/2021 00:00:00
24137;"FRMIC";4;13/10/2021 00:00:00
24138;"MABON";2;13/10/2021 00:00:00
24139;"VIGUI";1;13/10/2021 00:00:00
24140;"DIDAL";4;13/10/2021 00:00:00
24141;"CLJAN";5;13/10/2021 00:00:00
24142;"REDAN";3;13/10/2021 00:00:00
24143;"CHGAS";4;13/10/2021 00:00:00
24144;"ZOHED";3;13/10/2021 00:00:00
24145;"MIGAL";5;13/10/2021 00:00:00
24146;"CHGRA";4;13/10/2021 00:00:00
24147;"ANLER";9;13/10/2021 00:00:00
24148;"LOHUE";4;13/10/2021 00:00:00
24149;"JELAZ";2;13/10/2021 00:00:00
24150;"ERDUR";5;13/10/2021 00:00:00
24151;"SYLEJ";1;13/10/2021 00:00:00
24152;"FAMAR";8;13/10/2021 00:00:00
24153;"ALCLE";6;13/10/2021 00:00:00
24154;"ALCLE";2;13/10/2021 00:00:00
24155;"CHROU";4;13/10/2021 00:00:00
24156;"DELE";7;13/10/2021 00:00:00
24157;"CECHA";3;13/10/2021 00:00:00
24158;"SYBEL";3;13/10/2021 00:00:00
24159;"JEHOU";1;13/10/2021 00:00:00
24160;"JEMAN";4;13/10/2021 00:00:00
24161;"CLJAN";3;13/10/2021 00:00:00
24162;"RIDAB";13;13/10/2021 00:00:00
24163;"PABEL";1;13/10/2021 00:00:00
24164;"JEMAN";4;13/10/2021 00:00:00
24165;"MAHEN";5;14/10/2021 00:00:00
24166;"FAMAR";5;14/10/2021 00:00:00
24167;"OLFER";1;14/10/2021 00:00:00
24168;"SELAU";2;14/10/2021 00:00:00
24169;"ANLER";5;14/10/2021 00:00:00
24170;"FRMIC";11;14/10/2021 00:00:00
24171;"ALCLE";5;14/10/2021 00:00:00
24172;"FAMAR";5;14/10/2021 00:00:00
24173;"MIGAL";8;14/10/2021 00:00:00
24174;"SAJOU";1;14/10/2021 00:00:00
24175;"JEHOU";7;14/10/2021 00:00:00
24176;"CLHAL";9;14/10/2021 00:00:00
24177;"MABON";7;14/10/2021 00:00:00
24178;"PABEL";2;14/10/2021 00:00:00
24179;"DIDAL";1;14/10/2021 00:00:00
24180;"SYBEL";3;14/10/2021 00:00:00
24181;"JELAZ";6;14/10/2021 00:00:00
24182;"HALER";3;14/10/2021 00:00:00
24183;"VIGUI";10;14/10/2021 00:00:00
24184;"CLHAL";5;14/10/2021 00:00:00
24185;"CLJAN";8;14/10/2021 00:00:00
24186;"CEGRO";9;14/10/2021 00:00:00
24187;"LOHUE";4;14/10/2021 00:00:00
24188;"NISCH";9;14/10/2021 00:00:00
24189;"RIDAN";8;14/10/2021 00:00:00
24190;"SYLEJ";12;14/10/2021 00:00:00
24191;"CLJAN";8;14/10/2021 00:00:00
24192;"ERSWE";4;14/10/2021 00:00:00
24193;"ALCLE";5;15/10/2021 00:00:00
24194;"HALER";4;15/10/2021 00:00:00
24195;"YATAN";7;15/10/2021 00:00:00
24196;"DELE";11;15/10/2021 00:00:00
24197;"PABEL";5;15/10/2021 00:00:00
24198;"JAHEN";4;15/10/2021 00:00:00
24199;"OLLHE";8;15/10/2021 00:00:00
24200;"FAMAR";2;15/10/2021 00:00:00
24201;"CHDUD";4;15/10/2021 00:00:00
24202;"ERDEB";12;15/10/2021 00:00:00
24203;"HALER";9;15/10/2021 00:00:00
24204;"PAMAR";2;15/10/2021 00:00:00
24205;"REDAN";10;15/10/2021 00:00:00
24206;"PABEL";5;15/10/2021 00:00:00
24207;"SORET";4;15/10/2021 00:00:00
24208;"BETIZ";4;15/10/2021 00:00:00
24209;"ANLER";7;15/10/2021 00:00:00
24210;"CHGRA";6;15/10/2021 00:00:00
24211;"DAMIC";5;16/10/2021 00:00:00
24212;"ROHAM";10;16/10/2021 00:00:00
24213;"JELEC";6;16/10/2021 00:00:00
24214;"HALER";6;16/10/2021 00:00:00
24215;"FAMAR";10;16/10/2021 00:00:00
24216;"THLOP";11;16/10/2021 00:00:00
24217;"CHGAS";4;16/10/2021 00:00:00
24218;"JÉBAZ";7;16/10/2021 00:00:00
24219;"NAROU";10;16/10/2021 00:00:00
24220;"CHBES";9;16/10/2021 00:00:00
24221;"DELE";4;16/10/2021 00:00:00
24222;"ERDEB";7;16/10/2021 00:00:00
24223;"SYBEL";6;16/10/2021 00:00:00
24224;"ERDUR";3;16/10/2021 00:00:00
24225;"JEMAN";1;16/10/2021 00:00:00
24226;"BEAVI";7;16/10/2021 00:00:00
24227;"ALDUV";1;16/10/2021 00:00:00
24228;"CHBES";1;16/10/2021 00:00:00
24229;"CLJAN";1;16/10/2021 00:00:00
24230;"MIGAL";4;17/10/2021 00:00:00
24231;"ERDEB";4;17/10/2021 00:00:00
24232;"DACOU";5;17/10/2021 00:00:00
24233;"HALER";9;17/10/2021 00:00:00
24234;"ANLER";6;17/10/2021 00:00:00
24235;"JELEC";4;17/10/2021 00:00:00
24236;"ALCLE";6;17/10/2021 00:00:00
24237;"NISCH";12;17/10/2021 00:00:00
24238;"BRLEH";12;17/10/2021 00:00:00
24239;"PASAU";7;17/10/2021 00:00:00
24240;"ANLER";4;17/10/2021 00:00:00
24241;"BETIZ";5;17/10/2021 00:00:00
24242;"JEBOR";10;17/10/2021 00:00:00
24243;"CHGRA";3;17/10/2021 00:00:00
24244;"CHDUD";4;17/10/2021 00:00:00
24245;"CECHA";3;17/10/2021 00:00:00
24246;"RIDAN";5;17/10/2021 00:00:00
24247;"ANLER";5;17/10/2021 00:00:00
24248;"BETIZ";4;17/10/2021 00:00:00
24249;"CHBES";4;17/10/2021 00:00:00
24250;"ALAUV";4;17/10/2021 00:00:00
24251;"ROHAM";3;17/10/2021 00:00:00
24252;"MIGAL";1;18/10/2021 00:00:00
24253;"SYBEL";6;18/10/2021 00:00:00
24254;"FAMAR";2;18/10/2021 00:00:00
24255;"FAMAR";4;18/10/2021 00:00:00
24256;"JÉBAZ";3;18/10/2021 00:00:00
24257;"CHDUD";3;18/10/2021 00:00:00
24258;"CHLAB";5;18/10/2021 00:00:00
24259;"DAMIC";4;18/10/2021 00:00:00
24260;"ERBEC";6;18/10/2021 00:00:00
24261;"MIGAL";7;18/10/2021 00:00:00
24262;"CECHA";6;18/10/2021 00:00:00
24263;"JEMAN";3;18/10/2021 00:00:00
24264;"CLHAL";1;18/10/2021 00:00:00
24265;"RARAB";4;18/10/2021 00:00:00
24266;"THLOP";7;18/10/2021 00:00:00
24267;"ROHAM";9;18/10/2021 00:00:00
24268;"CLHAL";1;18/10/2021 00:00:00
24269;"CHLAB";2;18/10/2021 00:00:00
24270;"CHROU";1;18/10/2021 00:00:00
24271;"PILED";7;18/10/2021 00:00:00
24272;"DACOU";10;18/10/2021 00:00:00
24273;"DIDAL";6;18/10/2021 00:00:00
24274;"CÉDAU";3;18/10/2021 00:00:00
24275;"DIGOM";1;18/10/2021 00:00:00
24276;"PABEL";13;18/10/2021 00:00:00
24277;"PAJAL";1;18/10/2021 00:00:00
24278;"SELAU";7;18/10/2021 00:00:00
24279;"NISCH";12;18/10/2021 00:00:00
24280;"SYLEJ";1;19/10/2021 00:00:00
24281;"DACOU";6;19/10/2021 00:00:00
24282;"FAMAR";8;19/10/2021 00:00:00
24283;"REDAN";9;19/10/2021 00:00:00
24284;"DAMIC";4;19/10/2021 00:00:00
24285;"FRMIC";8;19/10/2021 00:00:00
24286;"LOHUE";1;19/10/2021 00:00:00
24287;"ALCLE";8;19/10/2021 00:00:00
24288;"SORET";6;19/10/2021 00:00:00
24289;"CHBON";4;19/10/2021 00:00:00
24290;"ALCLE";5;19/10/2021 00:00:00
24291;"CHLAB";1;19/10/2021 00:00:00
24292;"MABON";7;19/10/2021 00:00:00
24293;"ARBLA";7;19/10/2021 00:00:00
24294;"CEGRO";1;19/10/2021 00:00:00
24295;"BRLEH";9;19/10/2021 00:00:00
24296;"CHDUD";7;19/10/2021 00:00:00
24297;"CÉDAU";5;19/10/2021 00:00:00
24298;"ALAUV";1;19/10/2021 00:00:00
24299;"FAMAR";1;19/10/2021 00:00:00
24300;"MAEUS";1;19/10/2021 00:00:00
24301;"JÉBAZ";1;19/10/2021 00:00:00
24302;"JEHOU";4;20/10/2021 00:00:00
24303;"ZOHED";4;20/10/2021 00:00:00
24304;"GESEF";1;20/10/2021 00:00:00
24305;"FAMAR";10;20/10/2021 00:00:00
24306;"ANLER";4;20/10/2021 00:00:00
24307;"MOELK";1;20/10/2021 00:00:00
24308;"JEHOU";4;20/10/2021 00:00:00
24309;"CHLAB";7;20/10/2021 00:00:00
24310;"CHLAB";2;20/10/2021 00:00:00
24311;"FAMAR";2;20/10/2021 00:00:00
24312;"JÉBAZ";4;20/10/2021 00:00:00
24313;"CHDUD";7;20/10/2021 00:00:00
24314;"ALCLE";2;20/10/2021 00:00:00
24315;"CHLEC";4;20/10/2021 00:00:00
24316;"ARBLA";1;20/10/2021 00:00:00
24317;"CÉDAU";9;20/10/2021 00:00:00
24318;"ALAUV";10;20/10/2021 00:00:00
24319;"CHGRA";5;20/10/2021 00:00:00
24320;"ARBLA";5;20/10/2021 00:00:00
24321;"CHBES";6;20/10/2021 00:00:00
24322;"CHDUD";1;20/10/2021 00:00:00
24323;"ARBLA";1;20/10/2021 00:00:00
24324;"CÉDAU";1;21/10/2021 00:00:00
24325;"CHROU";1;21/10/2021 00:00:00
24326;"JELEC";3;21/10/2021 00:00:00
24327;"REDAN";5;21/10/2021 00:00:00
24328;"ARBLA";9;21/10/2021 00:00:00
24329;"REDAN";4;21/10/2021 00:00:00
24330;"ERSWE";3;21/10/2021 00:00:00
24331;"ERDUR";3;21/10/2021 00:00:00
24332;"JEBOR";9;21/10/2021 00:00:00
24333;"JEBOR";1;21/10/2021 00:00:00
24334;"ANLER";6;21/10/2021 00:00:00
24335;"MAEUS";7;21/10/2021 00:00:00
24336;"GESEF";6;21/10/2021 00:00:00
24337;"REDAN";6;21/10/2021 00:00:00
24338;"JALES";6;21/10/2021 00:00:00
24339;"CHGRA";5;21/10/2021 00:00:00
24340;"ALCLE";4;21/10/2021 00:00:00
24341;"CHBES";1;21/10/2021 00:00:00
24342;"ARBLA";3;21/10/2021 00:00:00
24343;"JEHOU";5;22/10/2021 00:00:00
24344;"DAMIC";4;22/10/2021 00:00:00
24345;"OLLHE";1;22/10/2021 00:00:00
24346;"MOELK";3;22/10/2021 00:00:00
24347;"JEBOR";1;22/10/2021 00:00:00
24348;"MAFER";3;22/10/2021 00:00:00
24349;"CHBES";3;22/10/2021 00:00:00
24350;"SAJOU";9;22/10/2021 00:00:00
24351;"SORET";4;22/10/2021 00:00:00
24352;"MOELK";4;22/10/2021 00:00:00
24353;"ARBLA";3;22/10/2021 00:00:00
24354;"JEMAN";12;22/10/2021 00:00:00
24355;"CLJAN";2;22/10/2021 00:00:00
24356;"ROHAM";1;22/10/2021 00:00:00
24357;"DAMIC";8;22/10/2021 00:00:00
24358;"NOBEL";4;22/10/2021 00:00:00
24359;"CHDUD";11;22/10/2021 00:00:00
24360;"JEMAN";5;22/10/2021 00:00:00
24361;"OLLHE";5;22/10/2021 00:00:00
24362;"PALEC";1;22/10/2021 00:00:00
24363;"REDAN";1;22/10/2021 00:00:00
24364;"LOHUE";1;22/10/2021 00:00:00
24365;"YAKAL";3;23/10/2021 00:00:00
24366;"LEHOS";7;23/10/2021 00:00:00
24367;"DIDAL";4;23/10/2021 00:00:00
24368;"PALER";13;23/10/2021 00:00:00
24369;"CEGRO";7;23/10/2021 00:00:00
24370;"GECAU";4;23/10/2021 00:00:00
24371;"CHLAB";5;23/10/2021 00:00:00
24372;"MALAZ";7;23/10/2021 00:00:00
24373;"PAJAL";1;23/10/2021 00:00:00
24374;"ALCLE";4;23/10/2021 00:00:00
24375;"ANLER";5;23/10/2021 00:00:00
24376;"CHLEC";2;23/10/2021 00:00:00
24377;"ERSWE";6;23/10/2021 00:00:00
24378;"LOHUE";7;23/10/2021 00:00:00
24379;"BETIZ";11;23/10/2021 00:00:00
24380;"ANLER";1;23/10/2021 00:00:00
24381;"LODUR";3;24/10/2021 00:00:00
24382;"CHBES";6;24/10/2021 00:00:00
24383;"PALEC";3;24/10/2021 00:00:00
24384;"NISCH";4;24/10/2021 00:00:00
24385;"DAMIC";4;24/10/2021 00:00:00
24386;"CÉDAU";1;24/10/2021 00:00:00
24387;"GESEF";9;24/10/2021 00:00:00
24388;"PABEL";7;24/10/2021 00:00:00
24389;"PAJAL";3;24/10/2021 00:00:00
24390;"CHBON";1;24/10/2021 00:00:00
24391;"SYBEL";4;24/10/2021 00:00:00
24392;"CHBES";3;24/10/2021 00:00:00
24393;"JEHOU";2;24/10/2021 00:00:00
24394;"CLJAN";5;24/10/2021 00:00:00
24395;"CHLEC";6;24/10/2021 00:00:00
24396;"LODUR";4;24/10/2021 00:00:00
24397;"ARBLA";1;24/10/2021 00:00:00
24398;"CHBES";4;24/10/2021 00:00:00
24399;"ALDUV";5;24/10/2021 00:00:00
24400;"CHLEC";5;25/10/2021 00:00:00
24401;"PILED";3;25/10/2021 00:00:00
24402;"PASAU";4;25/10/2021 00:00:00
24403;"CHDUD";6;25/10/2021 00:00:00
24404;"VIVAN";4;25/10/2021 00:00:00
24405;"JÉBAZ";7;25/10/2021 00:00:00
24406;"ZOHED";1;25/10/2021 00:00:00
24407;"ERDEB";10;25/10/2021 00:00:00
24408;"CLHAL";1;25/10/2021 00:00:00
24409;"CECHA";10;25/10/2021 00:00:00
24410;"CHLEC";6;25/10/2021 00:00:00
24411;"NAROU";9;25/10/2021 00:00:00
24412;"BRLEH";5;25/10/2021 00:00:00
24413;"CHROU";5;25/10/2021 00:00:00
24414;"CHLAB";8;25/10/2021 00:00:00
24415;"MOELK";1;25/10/2021 00:00:00
24416;"NOBEL";5;25/10/2021 00:00:00
24417;"RARAB";10;25/10/2021 00:00:00
24418;"CEGRO";7;25/10/2021 00:00:00
24419;"CHLEC";5;25/10/2021 00:00:00
24420;"ERDEB";3;25/10/2021 00:00:00
24421;"PASAU";6;25/10/2021 00:00:00
24422;"OLLHE";4;25/10/2021 00:00:00
24423;"ALAUV";5;25/10/2021 00:00:00
24424;"SORET";11;25/10/2021 00:00:00
24425;"LOHUE";4;25/10/2021 00:00:00
24426;"MALAZ";3;26/10/2021 00:00:00
24427;"RIDAB";4;26/10/2021 00:00:00
24428;"CHLEC";2;26/10/2021 00:00:00
24429;"JEMAN";9;26/10/2021 00:00:00
24430;"JEHOU";5;26/10/2021 00:00:00
24431;"PILED";4;26/10/2021 00:00:00
24432;"JEHOU";6;26/10/2021 00:00:00
24433;"ZOHED";3;26/10/2021 00:00:00
24434;"JÉBAZ";3;26/10/2021 00:00:00
24435;"NAROU";7;26/10/2021 00:00:00
24436;"DIGOM";6;26/10/2021 00:00:00
24437;"CLHAL";11;26/10/2021 00:00:00
24438;"PAJAL";4;26/10/2021 00:00:00
24439;"CHLEC";5;26/10/2021 00:00:00
24440;"SEADI";4;26/10/2021 00:00:00
24441;"SEADI";1;26/10/2021 00:00:00
24442;"JEHOU";3;26/10/2021 00:00:00
24443;"JEHOU";4;26/10/2021 00:00:00
24444;"NAROU";6;26/10/2021 00:00:00
24445;"BRLEH";1;26/10/2021 00:00:00
24446;"SEADI";1;26/10/2021 00:00:00
24447;"MOELK";1;26/10/2021 00:00:00
24448;"OLLHE";4;27/10/2021 00:00:00
24449;"ARBLA";1;27/10/2021 00:00:00
24450;"NAROU";1;27/10/2021 00:00:00
24451;"BETIZ";3;27/10/2021 00:00:00
24452;"JELEC";9;27/10/2021 00:00:00
24453;"MICOL";1;27/10/2021 00:00:00
24454;"ZOHED";1;27/10/2021 00:00:00
24455;"BEGAL";12;27/10/2021 00:00:00
24456;"GAANT";1;27/10/2021 00:00:00
24457;"LOHUE";6;27/10/2021 00:00:00
24458;"JEHOU";12;27/10/2021 00:00:00
24459;"MOELK";5;27/10/2021 00:00:00
24460;"JAHEN";11;27/10/2021 00:00:00
24461;"CLJAN";8;27/10/2021 00:00:00
24462;"JEHOU";7;27/10/2021 00:00:00
24463;"JEMAN";4;27/10/2021 00:00:00
24464;"ARBLA";1;27/10/2021 00:00:00
24465;"ALDUV";5;27/10/2021 00:00:00
24466;"CHBON";9;27/10/2021 00:00:00
24467;"PAJAL";5;28/10/2021 00:00:00
24468;"ERBEC";6;28/10/2021 00:00:00
24469;"PILED";6;28/10/2021 00:00:00
24470;"SYLEJ";4;28/10/2021 00:00:00
24471;"YATAN";3;28/10/2021 00:00:00
24472;"NISCH";1;28/10/2021 00:00:00
24473;"CLJAN";2;28/10/2021 00:00:00
24474;"ROHAM";5;28/10/2021 00:00:00
24475;"ARBLA";1;28/10/2021 00:00:00
24476;"ARBLA";4;28/10/2021 00:00:00
24477;"JÉBAZ";6;28/10/2021 00:00:00
24478;"ANLER";6;28/10/2021 00:00:00
24479;"CHLEC";1;28/10/2021 00:00:00
24480;"BRLEH";6;28/10/2021 00:00:00
24481;"CHBON";9;28/10/2021 00:00:00
24482;"ERSWE";3;28/10/2021 00:00:00
24483;"CÉDAU";3;28/10/2021 00:00:00
24484;"OLLHE";7;28/10/2021 00:00:00
24485;"JEBOR";7;28/10/2021 00:00:00
24486;"SORET";3;28/10/2021 00:00:00
24487;"LODUR";3;28/10/2021 00:00:00
24488;"ALCLE";1;28/10/2021 00:00:00
24489;"MIGAL";5;29/10/2021 00:00:00
24490;"MAFER";3;29/10/2021 00:00:00
24491;"MOELK";3;29/10/2021 00:00:00
24492;"RARAB";5;29/10/2021 00:00:00
24493;"RARAB";4;29/10/2021 00:00:00
24494;"PABEL";2;29/10/2021 00:00:00
24495;"SYLEJ";4;29/10/2021 00:00:00
24496;"RARAB";3;29/10/2021 00:00:00
24497;"CHBES";11;29/10/2021 00:00:00
24498;"CHBON";1;29/10/2021 00:00:00
24499;"GECAU";4;29/10/2021 00:00:00
24500;"ALAUV";4;29/10/2021 00:00:00
24501;"NISCH";1;29/10/2021 00:00:00
24502;"NISCH";1;29/10/2021 00:00:00
24503;"ZOHED";1;29/10/2021 00:00:00
24504;"FRLAN";1;29/10/2021 00:00:00
24505;"REDAN";1;29/10/2021 00:00:00
24506;"MOELK";1;29/10/2021 00:00:00
24507;"DAMIC";1;29/10/2021 00:00:00
24508;"ERDEB";1;29/10/2021 00:00:00
24509;"CHGRA";1;29/10/2021 00:00:00
24510;"CEGRO";1;29/10/2021 00:00:00
24511;"ERBEC";1;29/10/2021 00:00:00
24512;"PHFRO";1;29/10/2021 00:00:00
24513;"VIGUI";1;29/10/2021 00:00:00
24514;"CHBON";1;29/10/2021 00:00:00
24515;"MOELK";1;29/10/2021 00:00:00
24516;"VIGUI";1;29/10/2021 00:00:00
24517;"CHDUD";1;30/10/2021 00:00:00
24518;"DELE ";1;30/10/2021 00:00:00
24519;"CHLEC";1;30/10/2021 00:00:00
24520;"SYLEJ";1;30/10/2021 00:00:00
24521;"BRLEH";1;30/10/2021 00:00:00
24522;"PALER";1;30/10/2021 00:00:00
24523;"ERDEB";1;30/10/2021 00:00:00
24524;"LEHOS";1;30/10/2021 00:00:00
24525;"DAMIC";1;30/10/2021 00:00:00
24526;"JEHOU";1;30/10/2021 00:00:00
24527;"PILED";1;30/10/2021 00:00:00
24528;"JEHER";1;30/10/2021 00:00:00
24529;"LOHUE";1;30/10/2021 00:00:00
24530;"ERDEB";1;30/10/2021 00:00:00
24531;"HALER";1;30/10/2021 00:00:00
24532;"BETIZ";1;30/10/2021 00:00:00
24533;"PHFRO";1;30/10/2021 00:00:00
24534;"JÉBAZ";1;30/10/2021 00:00:00
24535;"CÉDAU";1;30/10/2021 00:00:00
24536;"ARBLA";1;30/10/2021 00:00:00
24537;"CHLEC";1;30/10/2021 00:00:00
24538;"JÉBAZ";1;30/10/2021 00:00:00
24539;"JAHEN";1;30/10/2021 00:00:00
24540;"CHBES";1;30/10/2021 00:00:00
24541;"ALCLE";1;30/10/2021 00:00:00
24542;"LODUR";1;30/10/2021 00:00:00
24543;"MAHEN";1;30/10/2021 00:00:00
24544;"CEGRO";1;30/10/2021 00:00:00
24545;"NISCH";1;30/10/2021 00:00:00
24546;"REDAN";1;31/10/2021 00:00:00
24547;"ZOHED";1;31/10/2021 00:00:00
24548;"SAJOU";1;31/10/2021 00:00:00
24549;"GECAU";1;31/10/2021 00:00:00
24550;"YAKAL";1;31/10/2021 00:00:00
24551;"JAHEN";1;31/10/2021 00:00:00
24552;"PALEC";1;31/10/2021 00:00:00
24553;"THLOP";1;31/10/2021 00:00:00
24554;"CHLEC";1;31/10/2021 00:00:00
24555;"CLHAL";1;31/10/2021 00:00:00
24556;"JEHOU";1;31/10/2021 00:00:00
24557;"CHBES";1;31/10/2021 00:00:00
24558;"MOELK";1;31/10/2021 00:00:00
24559;"PAJAL";1;31/10/2021 00:00:00
24560;"DACOU";1;31/10/2021 00:00:00
24561;"JEHOU";1;31/10/2021 00:00:00
24562;"MOELK";1;31/10/2021 00:00:00
24563;"DIDAL";1;31/10/2021 00:00:00
24564;"DELE ";1;31/10/2021 00:00:00
24565;"DIDAL";1;31/10/2021 00:00:00
24566;"JEMAN";1;31/10/2021 00:00:00
24567;"ALCLE";1;31/10/2021 00:00:00
24568;"MABON";1;31/10/2021 00:00:00
24569;"CHGRA";1;31/10/2021 00:00:00
24570;"CHGRA";1;31/10/2021 00:00:00
24571;"ARBLA";1;31/10/2021 00:00:00
